	localhost/127.0.0.1 	Received 	Sent By: testIP1 	Sent To: localhost/127.0.0.1	 TIMESTAMP : 2016-01-24 20:59:18.855		AddPlayer joe testIP1
	localhost/127.0.0.1 	Received 	Sent By: testIP2 	Sent To: localhost/127.0.0.1	 TIMESTAMP : 2016-01-24 20:59:26.178		AddPlayer fred testIP2
	localhost/127.0.0.1 	Sent 	Sent By: localhost/127.0.0.1 	Sent To: testIP2	 TIMESTAMP : 2016-01-24 20:59:26.182			Player Added	Player Added
	localhost/127.0.0.1 	Received 	Sent By: testIP2 	Sent To: localhost/127.0.0.1	 TIMESTAMP : 2016-01-24 20:59:56.264		joe Thrust 1 Duck 3 fred
	localhost/127.0.0.1 	Received 	Sent By: testIP1 	Sent To: localhost/127.0.0.1	 TIMESTAMP : 2016-01-24 21:00:23.829		fred Thrust 1 Dodge 3 joe
	localhost/127.0.0.1 	Sent 	Sent By: localhost/127.0.0.1 	Sent To: testIP1	 TIMESTAMP : 2016-01-24 21:00:23.834					joe Smash 1 Duck 3	fred Smash 1 Dodge 3	fred has 1 wounds!	joe has 1 wounds!
	localhost/127.0.0.1 	Received 	Sent By: testIP1 	Sent To: localhost/127.0.0.1	 TIMESTAMP : 2016-01-24 21:00:53.111		fred Thrust 3 Duck 1 joe
	localhost/127.0.0.1 	Received 	Sent By: testIP2 	Sent To: localhost/127.0.0.1	 TIMESTAMP : 2016-01-24 21:01:09.87		joe Thrust 2 Swing 2 fred
	localhost/127.0.0.1 	Sent 	Sent By: localhost/127.0.0.1 	Sent To: testIP2	 TIMESTAMP : 2016-01-24 21:01:09.874				DEFENSE ERROR
	localhost/127.0.0.1 	Received 	Sent By: testIP2 	Sent To: localhost/127.0.0.1	 TIMESTAMP : 2016-01-24 21:01:58.115		joe Thrust 3 Charge 1 fred
	localhost/127.0.0.1 	Received 	Sent By: testIP1 	Sent To: localhost/127.0.0.1	 TIMESTAMP : 2016-01-24 21:02:12.83		fred Thrust 3 Charge 1 joe
	localhost/127.0.0.1 	Sent 	Sent By: localhost/127.0.0.1 	Sent To: testIP1	 TIMESTAMP : 2016-01-24 21:02:12.834					joe Swing 3 Charge 1	fred Swing 3 Charge 1	fred has 1 wounds!	joe has 1 wounds!
	localhost/127.0.0.1 	Received 	Sent By: testIP1 	Sent To: localhost/127.0.0.1	 TIMESTAMP : 2016-01-24 21:02:34.3		fred Smash 3 Dodge 1 joe
	localhost/127.0.0.1 	Received 	Sent By: testIP2 	Sent To: localhost/127.0.0.1	 TIMESTAMP : 2016-01-24 21:02:43.747		joe Swing 3 Duck 1 fred
	localhost/127.0.0.1 	Sent 	Sent By: localhost/127.0.0.1 	Sent To: testIP2	 TIMESTAMP : 2016-01-24 21:02:43.754					fred Smash 3 Dodge 1	joe Thrust 3 Duck 1	joe has 1 wounds!	fred has 2 wounds!
	localhost/127.0.0.1 	Received 	Sent By: testIP2 	Sent To: localhost/127.0.0.1	 TIMESTAMP : 2016-01-24 21:02:54.572		joe Swing 3 Charge 1 fred
	localhost/127.0.0.1 	Received 	Sent By: testIP1 	Sent To: localhost/127.0.0.1	 TIMESTAMP : 2016-01-24 21:03:03.194		fred Smash 3 Charge 1 joe
	localhost/127.0.0.1 	Sent 	Sent By: localhost/127.0.0.1 	Sent To: testIP1	 TIMESTAMP : 2016-01-24 21:03:03.198					joe Thrust 3 Charge 1	fred Smash 3 Charge 1	fred has 1 wounds!	joe has 3 wounds!
	localhost/127.0.0.1 	Received 	Sent By: testIP1 	Sent To: localhost/127.0.0.1	 TIMESTAMP : 2016-01-24 21:03:25.884		fred Thrust 1 Dodge 3 joe
	localhost/127.0.0.1 	Received 	Sent By: testIP2 	Sent To: localhost/127.0.0.1	 TIMESTAMP : 2016-01-24 21:04:12.293		joe Smash 1 Charge 3 fred
	localhost/127.0.0.1 	Sent 	Sent By: localhost/127.0.0.1 	Sent To: testIP2	 TIMESTAMP : 2016-01-24 21:04:12.298					fred Thrust 1 Dodge 3	joe Swing 1 Charge 3	joe has 2 wounds!	fred has 4 wounds!
	localhost/127.0.0.1 	Received 	Sent By: testIP2 	Sent To: localhost/127.0.0.1	 TIMESTAMP : 2016-01-24 21:04:34.467		joe Thrust 1 Dodge 3 fred
	localhost/127.0.0.1 	Received 	Sent By: testIP1 	Sent To: localhost/127.0.0.1	 TIMESTAMP : 2016-01-24 21:04:45.784		fred Smash 1 Charge 3 joe
	localhost/127.0.0.1 	Sent 	Sent By: localhost/127.0.0.1 	Sent To: testIP1	 TIMESTAMP : 2016-01-24 21:04:45.788					joe Thrust 1 Dodge 3	fred Swing 1 Charge 3	fred has 3 wounds!	joe has 5 wounds!	GAME OVER
