	localhost/127.0.0.1 	Received 	Sent By: testIP1 	Sent To: localhost/127.0.0.1	 TIMESTAMP : 2016-01-24 21:12:35.894		AddPlayer jack testIP1
	localhost/127.0.0.1 	Received 	Sent By: testIP2 	Sent To: localhost/127.0.0.1	 TIMESTAMP : 2016-01-24 21:12:42.391		AddPlayer joe testIP2
	localhost/127.0.0.1 	Received 	Sent By: testIP3 	Sent To: localhost/127.0.0.1	 TIMESTAMP : 2016-01-24 21:12:48.286		AddPlayer jill testIP3
	localhost/127.0.0.1 	Received 	Sent By: testIP4 	Sent To: localhost/127.0.0.1	 TIMESTAMP : 2016-01-24 21:12:55.462		AddPlayer fred testIP4
	localhost/127.0.0.1 	Sent 	Sent By: localhost/127.0.0.1 	Sent To: testIP4	 TIMESTAMP : 2016-01-24 21:12:55.467			Player Added	Player Added	Player Added	Player Added
	localhost/127.0.0.1 	Received 	Sent By: testIP4 	Sent To: localhost/127.0.0.1	 TIMESTAMP : 2016-01-24 21:13:11.125		joe Thrust 2 Dodge 2 fred
	localhost/127.0.0.1 	Received 	Sent By: testIP3 	Sent To: localhost/127.0.0.1	 TIMESTAMP : 2016-01-24 21:13:24.172		fred Smash 3 Charge 1 jill
	localhost/127.0.0.1 	Received 	Sent By: testIP2 	Sent To: localhost/127.0.0.1	 TIMESTAMP : 2016-01-24 21:13:36.839		jill Smash 1 Charge 3 joe
	localhost/127.0.0.1 	Received 	Sent By: testIP1 	Sent To: localhost/127.0.0.1	 TIMESTAMP : 2016-01-24 21:13:50.557		joe Swing 1 Duck 3 jack
	localhost/127.0.0.1 	Sent 	Sent By: localhost/127.0.0.1 	Sent To: testIP1	 TIMESTAMP : 2016-01-24 21:13:50.564							joe Smash 2 Dodge 2	fred Swing 3 Charge 1	jill Thrust 1 Charge 3	joe Smash 1 Duck 3	fred has 1 wounds!	jill has 1 wounds!	joe has 2 wounds!	jack has 0 wounds!	GAME OVER
